Assignment 07
…
# workflow
lasso_wf <- workflow() |>
  add_recipe(lasso_rec) |>
  add_model(lasso_mod)

# results
lasso_res <- lasso_wf |>
  tune_grid(resamples = folds,
            grid = lasso_grid,
            metrics = metric_set(yardstick::rmse, yardstick::mae))

lasso_res |>
  collect_metrics()

# A tibble: 40 × 7
    penalty .metric .estimator  mean     n std_err .config              
      <dbl> <chr>   <chr>      <dbl> <int>   <dbl> <chr>                
 1 1   e-10 mae     standard    3.28     3 0.00524 Preprocessor1_Model01
 2 1   e-10 rmse    standard    4.84     3 0.0507  Preprocessor1_Model01
 3 3.36e-10 mae     standard    3.28     3 0.00524 Preprocessor1_Model02
 4 3.36e-10 rmse    standard    4.84     3 0.0507  Preprocessor1_Model02
 5 1.13e- 9 mae     standard    3.28     3 0.00524 Preprocessor1_Model03
 6 1.13e- 9 rmse    standard    4.84     3 0.0507  Preprocessor1_Model03
 7 3.79e- 9 mae     standard    3.28     3 0.00524 Preprocessor1_Model04
 8 3.79e- 9 rmse    standard    4.84     3 0.0507  Preprocessor1_Model04
 9 1.27e- 8 mae     standard    3.28     3 0.00524 Preprocessor1_Model05
10 1.27e- 8 rmse    standard    4.84     3 0.0507  Preprocessor1_Model05
# ℹ 30 more rows
…
# workflow
tree_wf <- workflow() |>
  add_recipe(tree_rec) |>
  add_model(tree_mod)

# results
tree_res <- tree_wf |>
  tune_grid(resamples = folds,
            grid = tree_grid,
            metrics = metric_set(yardstick::rmse, yardstick::mae))

tree_res |>
  collect_metrics()

# A tibble: 80 × 9
   cost_complexity tree_depth min_n .metric .estimator  mean     n std_err
             <dbl>      <int> <int> <chr>   <chr>      <dbl> <int>   <dbl>
 1       0.0166             8    32 mae     standard    4.37     3 0.0124 
 2       0.0166             8    32 rmse    standard    6.14     3 0.0473 
 3       0.000834           5    16 mae     standard    3.95     3 0.0105 
 4       0.000834           5    16 rmse    standard    5.65     3 0.00672
 5       0.0000204         12    22 mae     standard    3.75     3 0.00400
 6       0.0000204         12    22 rmse    standard    5.53     3 0.0412 
 7       0.000895          12    27 mae     standard    3.82     3 0.0120 
 8       0.000895          12    27 rmse    standard    5.49     3 0.0505 
 9       0.000531          14    27 mae     standard    3.76     3 0.0114 
10       0.000531          14    27 rmse    standard    5.45     3 0.0406 
# ℹ 70 more rows
# ℹ 1 more variable: .config <chr>
…
# results
set.seed(20260420)
rf_res <- rf_wf |>
  tune_grid(resamples = folds,
            grid = rf_grid,
            metrics = metric_set(yardstick::rmse, yardstick::mae))

rf_res |>
  collect_metrics()

# A tibble: 50 × 8
    mtry min_n .metric .estimator  mean     n std_err .config              
   <int> <int> <chr>   <chr>      <dbl> <int>   <dbl> <chr>                
 1     5     5 mae     standard    3.41     3 0.00406 Preprocessor1_Model01
 2     5     5 rmse    standard    4.97     3 0.0348  Preprocessor1_Model01
 3    12     5 mae     standard    3.30     3 0.00490 Preprocessor1_Model02
 4    12     5 rmse    standard    4.84     3 0.0430  Preprocessor1_Model02
 5    20     5 mae     standard    3.26     3 0.00596 Preprocessor1_Model03
 6    20     5 rmse    standard    4.81     3 0.0433  Preprocessor1_Model03
 7    27     5 mae     standard    3.23     3 0.00198 Preprocessor1_Model04
 8    27     5 rmse    standard    4.79     3 0.0381  Preprocessor1_Model04
 9    35     5 mae     standard    3.22     3 0.00276 Preprocessor1_Model05
10    35     5 rmse    standard    4.76     3 0.0501  Preprocessor1_Model05
# ℹ 40 more rows
…
